2014-01-14 7:29:46 - PHP Warning:  mail() [<a href='function.mail'>function.mail</a>]: Failed to connect to mailserver at &quot;localhost&quot; port 25, verify your &quot;SMTP&quot; and &quot;smtp_port&quot; setting in php.ini or use ini_set() in D:\wamp\www\+bootstrap3\system\library\mail.php on line 150
2015-10-27 12:50:52 - PHP Warning:  array_key_exists() [<a href='function.array-key-exists'>function.array-key-exists</a>]: The first argument should be either a string or an integer in /home/clicksof/public_html/projeto/soulasia/index.php on line 166
2015-10-28 9:16:49 - PHP Warning:  array_key_exists() [<a href='function.array-key-exists'>function.array-key-exists</a>]: The first argument should be either a string or an integer in /home/clicksof/public_html/projeto/soulasia/index.php on line 166
2015-10-30 16:24:07 - PHP Warning:  array_key_exists() [<a href='function.array-key-exists'>function.array-key-exists</a>]: The first argument should be either a string or an integer in /home/clicksof/public_html/projeto/soulasia/index.php on line 166
2015-10-30 16:26:07 - PHP Warning:  array_key_exists() [<a href='function.array-key-exists'>function.array-key-exists</a>]: The first argument should be either a string or an integer in /home/clicksof/public_html/projeto/soulasia/index.php on line 166
2015-10-30 16:26:07 - PHP Warning:  Cannot modify header information - headers already sent by (output started at /home/clicksof/public_html/projeto/soulasia/index.php:108) in /home/clicksof/public_html/projeto/soulasia/index.php on line 181
2015-10-30 16:26:07 - PHP Warning:  Cannot modify header information - headers already sent by (output started at /home/clicksof/public_html/projeto/soulasia/index.php:108) in /home/clicksof/public_html/projeto/soulasia/system/library/currency.php on line 45
2015-10-30 16:27:09 - PHP Warning:  array_key_exists() [<a href='function.array-key-exists'>function.array-key-exists</a>]: The first argument should be either a string or an integer in /home/clicksof/public_html/projeto/soulasia/index.php on line 166
2015-10-30 16:27:09 - PHP Warning:  Cannot modify header information - headers already sent by (output started at /home/clicksof/public_html/projeto/soulasia/index.php:108) in /home/clicksof/public_html/projeto/soulasia/index.php on line 181
2015-10-30 16:27:09 - PHP Warning:  Cannot modify header information - headers already sent by (output started at /home/clicksof/public_html/projeto/soulasia/index.php:108) in /home/clicksof/public_html/projeto/soulasia/system/library/currency.php on line 45
2016-03-02 18:36:06 - error_limites
2016-03-02 18:36:06 - error_limites
2016-03-02 18:36:06 - error_limites
2016-03-02 18:36:06 - error_limites
2016-03-02 18:36:06 - error_limites
2016-03-03 19:41:27 - error_limites
2016-03-03 19:41:27 - error_limites
2016-03-03 19:41:27 - error_limites
2016-03-03 19:41:27 - error_limites
2016-03-03 19:41:27 - error_limites
2016-03-06 17:58:14 - PHP Warning:  Invalid argument supplied for foreach() in /home/clicksof/public_html/projeto/soulasia/admin/controller/common/filemanager.php on line 368
2016-03-06 17:58:14 - PHP Warning:  Invalid argument supplied for foreach() in /home/clicksof/public_html/projeto/soulasia/admin/controller/common/filemanager.php on line 368
2016-03-06 17:58:14 - PHP Warning:  Invalid argument supplied for foreach() in /home/clicksof/public_html/projeto/soulasia/admin/controller/common/filemanager.php on line 368
2016-03-06 17:58:14 - PHP Warning:  Invalid argument supplied for foreach() in /home/clicksof/public_html/projeto/soulasia/admin/controller/common/filemanager.php on line 368
2016-03-06 21:23:14 - PHP Notice:  Undefined index: description in /home/clicksof/public_html/projeto/soulasia/vqmod/vqcache/vq2-admin_controller_design_banner.php on line 392
2016-03-06 21:23:14 - PHP Notice:  Undefined index: description in /home/clicksof/public_html/projeto/soulasia/vqmod/vqcache/vq2-admin_controller_design_banner.php on line 392
2016-03-06 21:23:14 - PHP Notice:  Undefined index: description in /home/clicksof/public_html/projeto/soulasia/vqmod/vqcache/vq2-admin_controller_design_banner.php on line 392
2016-03-06 21:23:14 - PHP Notice:  Undefined index: description in /home/clicksof/public_html/projeto/soulasia/vqmod/vqcache/vq2-admin_controller_design_banner.php on line 392
2016-04-22 11:32:22 - error_limites
2016-04-22 11:32:22 - error_limites
2016-04-22 11:32:22 - error_limites
2016-04-22 11:32:22 - error_limites
2016-04-22 11:32:22 - error_limites
2016-04-22 11:34:20 - error_limites
2016-04-22 11:34:20 - error_limites
2016-04-22 11:34:20 - error_limites
2016-04-22 11:34:20 - error_limites
2016-04-22 11:34:20 - error_limites
2016-04-22 13:28:21 - PHP Notice:  Undefined index: company_id in /home/soulasia/public_html/temp/catalog/model/account/customer.php on line 18
2016-04-22 13:34:58 - error_limites
2016-04-22 13:34:58 - error_limites
2016-04-22 13:34:58 - error_limites
2016-04-22 13:34:58 - error_limites
2016-04-22 13:34:58 - error_limites
2016-04-22 13:38:03 - error_limites
2016-04-22 13:38:03 - error_limites
2016-04-22 13:38:03 - error_limites
2016-04-22 13:38:03 - error_limites
2016-04-22 13:38:03 - error_limites
2016-04-22 13:52:12 - PHP Notice:  Undefined index: company_id in /home/soulasia/public_html/temp/catalog/model/account/customer.php on line 18
2016-07-18 20:29:04 - PHP Notice:  Undefined variable: sort_data in /var/www/html/soulasia/temp/catalog/model/catalog/product.php on line 237
2016-07-18 20:29:04 - PHP Warning:  in_array() expects parameter 2 to be array, null given in /var/www/html/soulasia/temp/catalog/model/catalog/product.php on line 237
